<svg
   viewBox="0 0 16 16"
   width="16px"
   height="16px"><style
     type="text/css"
     id="style3">
	.st0{fill:#231F20;}
</style><g
     id="g9"
     transform="matrix(0.03,0,0,0.03,0.5076683,0.74236655)"
     style="fill:#828282;fill-opacity:1"><path
       id="path50"
       class="st0"
       d="m 249.9,476.8 0,0 90.7,-279.1 -181.4,0 90.7,279.1 0,0 z"
       inkscape:connector-curvature="0"
       style="fill:#828282;fill-opacity:1" /><path
       id="path66"
       class="st0"
       d="m 32.1,197.7 0,0 -27.6,84.8 c -2.5,7.7 0.2,16.2 6.8,21 L 249.8,476.8 32.1,197.7 l 0,0 z"
       inkscape:connector-curvature="0"
       style="fill:#828282;fill-opacity:1" /><path
       id="path74"
       class="st0"
       d="m 32.1,197.7 127.1,0 -54.6,-168.1 c -2.8,-8.6 -15,-8.6 -17.9,0 l -54.6,168.1 0,0 z"
       inkscape:connector-curvature="0"
       style="fill:#828282;fill-opacity:1" /><path
       id="path82"
       class="st0"
       d="m 467.6,197.7 0,0 27.6,84.8 c 2.5,7.7 -0.2,16.2 -6.8,21 l -238.5,173.3 217.7,-279.1 0,0 z"
       inkscape:connector-curvature="0"
       style="fill:#828282;fill-opacity:1" /><path
       id="path86"
       class="st0"
       d="m 467.6,197.7 -127.1,0 54.6,-168.1 c 2.8,-8.6 15,-8.6 17.9,0 l 54.6,168.1 0,0 z"
       inkscape:connector-curvature="0"
       style="fill:#828282;fill-opacity:1" /></g></svg>
